<svg
        xmlns="http://www.w3.org/2000/svg"
        xmlns:xlink="http://www.w3.org/1999/xlink"
        width="36px" height="37px">
    <path fill-rule="evenodd"  fill="rgb(41, 142, 205)"
          d="M35.793,30.002 C34.313,24.384 30.167,19.656 24.565,17.530 C26.709,15.703 28.067,12.997 28.068,9.978 C28.066,4.474 23.558,0.013 17.999,0.013 C12.437,0.013 7.929,4.474 7.929,9.978 C7.929,12.996 9.288,15.703 11.432,17.530 C5.830,19.655 1.684,24.384 0.204,30.002 C0.074,30.485 0.010,30.975 0.010,31.461 C0.006,32.671 0.429,33.851 1.199,34.832 C2.269,36.223 3.907,37.020 5.673,37.007 L30.324,37.007 C30.337,37.007 30.351,37.007 30.365,37.007 C32.115,37.007 33.734,36.212 34.796,34.832 C35.565,33.849 35.988,32.671 35.984,31.459 C35.984,30.975 35.922,30.488 35.793,30.002 ZM32.930,33.410 C32.250,34.260 31.421,34.662 30.324,34.675 L5.673,34.675 C4.574,34.662 3.745,34.260 3.063,33.408 C2.585,32.790 2.370,32.153 2.366,31.461 C2.366,31.180 2.403,30.891 2.482,30.594 C3.959,24.988 8.482,20.393 14.435,19.059 C14.923,18.949 15.289,18.545 15.344,18.051 C15.400,17.558 15.134,17.083 14.681,16.869 C12.080,15.640 10.284,13.018 10.284,9.978 C10.293,5.763 13.739,2.353 17.999,2.344 C22.257,2.353 25.704,5.763 25.712,9.978 C25.713,13.018 23.916,15.640 21.316,16.869 C20.864,17.083 20.598,17.558 20.653,18.051 C20.708,18.545 21.074,18.949 21.563,19.059 C27.513,20.393 32.039,24.988 33.513,30.591 C33.592,30.888 33.629,31.178 33.629,31.459 C33.626,32.151 33.407,32.790 32.930,33.410 Z"/>
</svg>